[gd_scene load_steps=6 format=3 uid="uid://cxmv1l64nhp5f"]

[ext_resource type="Texture2D" uid="uid://bakecbdqvpoab" path="res://assets/sprites/effect/Godrays.png" id="1_2rij5"]

[sub_resource type="Gradient" id="Gradient_ex1ci"]
offsets = PackedFloat32Array(0, 0.514056, 1)
colors = PackedColorArray(0, 0, 0, 0, 1, 1, 1, 1, 1, 1, 1, 0)

[sub_resource type="GradientTexture1D" id="GradientTexture1D_wha4s"]
gradient = SubResource("Gradient_ex1ci")

[sub_resource type="ParticleProcessMaterial" id="ParticleProcessMaterial_3uq1o"]
particle_flag_disable_z = true
emission_shape = 3
emission_box_extents = Vector3(100, 70, 1)
direction = Vector3(10, 50, 0)
spread = 25.0
initial_velocity_min = 1.0
initial_velocity_max = 2.0
gravity = Vector3(0, 0, 0)
color_ramp = SubResource("GradientTexture1D_wha4s")
turbulence_enabled = true

[sub_resource type="RectangleShape2D" id="RectangleShape2D_gunw4"]

[node name="PointLight2D4" type="PointLight2D"]
position = Vector2(241, 121)
rotation = -0.466003
scale = Vector2(1.01611, 1.72533)
texture = ExtResource("1_2rij5")

[node name="PointLight2D" type="PointLight2D" parent="."]
position = Vector2(68.2445, -6.38544)
scale = Vector2(0.368288, 1.08839)
texture = ExtResource("1_2rij5")

[node name="GPUParticles2D" type="GPUParticles2D" parent="."]
position = Vector2(27.7495, -5.40481)
amount = 10
process_material = SubResource("ParticleProcessMaterial_3uq1o")
lifetime = 10.0

[node name="VisibleOnScreenNotifier2D" type="CollisionShape2D" parent="."]
position = Vector2(23.9909, 7.21386)
scale = Vector2(7.83911, 16.7934)
shape = SubResource("RectangleShape2D_gunw4")
debug_color = Color(0.576471, 0.54902, 0.145098, 0.419608)
metadata/_edit_lock_ = true
